<?xml version="1.0" encoding="UTF-8"?>
<svg width="562px" height="602px" viewBox="0 0 562 602" version="1.1" xmlns="http://www.w3.org/2000/svg" xmlns:xlink="http://www.w3.org/1999/xlink">
    <!-- Generator: Sketch 52.5 (67469) - http://www.bohemiancoding.com/sketch -->
    <title>Group 3</title>
    <desc>Created with Sketch.</desc>
    <g id="Page-1" stroke="none" stroke-width="1" fill="none" fill-rule="evenodd" opacity="0.2">
        <g id="Group-3" transform="translate(1.000000, 1.000000)" stroke="#013B81">
            <polygon id="Path-9" points="0 0 185.714286 0 400 300 185.714286 600 0 600 214.285714 300"></polygon>
            <polygon id="Path-9-Copy" points="445 362 475.178571 362 510 411 475.178571 460 445 460 479.821429 411"></polygon>
            <polygon id="Path-9-Copy-2" points="495 362 525.178571 362 560 411 525.178571 460 495 460 529.821429 411"></polygon>
        </g>
    </g>
</svg>